/Users/abdelhadikawtar/workspace-fullstack/suiviposte/suiviposte-backend/src/main/java/kawtar/abdelhadi/suiviposte/endpoints/SuiviEndpoint.java
/Users/abdelhadikawtar/workspace-fullstack/suiviposte/suiviposte-backend/src/main/java/kawtar/abdelhadi/suiviposte/entities/User.java
/Users/abdelhadikawtar/workspace-fullstack/suiviposte/suiviposte-backend/src/main/java/kawtar/abdelhadi/suiviposte/exceptions/APIResponseException.java
/Users/abdelhadikawtar/workspace-fullstack/suiviposte/suiviposte-backend/src/main/java/kawtar/abdelhadi/suiviposte/batch/SuiviBatchWriter.java
/Users/abdelhadikawtar/workspace-fullstack/suiviposte/suiviposte-backend/src/main/java/kawtar/abdelhadi/suiviposte/exceptions/NotFoundException.java
/Users/abdelhadikawtar/workspace-fullstack/suiviposte/suiviposte-backend/src/main/java/kawtar/abdelhadi/suiviposte/entities/Suivi.java
/Users/abdelhadikawtar/workspace-fullstack/suiviposte/suiviposte-backend/src/main/java/kawtar/abdelhadi/suiviposte/enums/StatutSuivi.java
/Users/abdelhadikawtar/workspace-fullstack/suiviposte/suiviposte-backend/src/main/java/kawtar/abdelhadi/suiviposte/batch/SuiviBatchConfig.java
/Users/abdelhadikawtar/workspace-fullstack/suiviposte/suiviposte-backend/src/main/java/kawtar/abdelhadi/suiviposte/mappers/ExceptionMapper.java
/Users/abdelhadikawtar/workspace-fullstack/suiviposte/suiviposte-backend/src/main/java/kawtar/abdelhadi/suiviposte/dto/UserDTO.java
/Users/abdelhadikawtar/workspace-fullstack/suiviposte/suiviposte-backend/src/main/java/kawtar/abdelhadi/suiviposte/ApplicationSuiviPoste.java
/Users/abdelhadikawtar/workspace-fullstack/suiviposte/suiviposte-backend/src/main/java/kawtar/abdelhadi/suiviposte/services/SuiviService.java
/Users/abdelhadikawtar/workspace-fullstack/suiviposte/suiviposte-backend/src/main/java/kawtar/abdelhadi/suiviposte/repositories/SuiviRepository.java
/Users/abdelhadikawtar/workspace-fullstack/suiviposte/suiviposte-backend/src/main/java/kawtar/abdelhadi/suiviposte/repositories/UserRepository.java
/Users/abdelhadikawtar/workspace-fullstack/suiviposte/suiviposte-backend/src/main/java/kawtar/abdelhadi/suiviposte/exceptions/ArgumentInvalideException.java
/Users/abdelhadikawtar/workspace-fullstack/suiviposte/suiviposte-backend/src/main/java/kawtar/abdelhadi/suiviposte/beans/PosteAPIBean.java
/Users/abdelhadikawtar/workspace-fullstack/suiviposte/suiviposte-backend/src/main/java/kawtar/abdelhadi/suiviposte/services/PosteAPIService.java
/Users/abdelhadikawtar/workspace-fullstack/suiviposte/suiviposte-backend/src/main/java/kawtar/abdelhadi/suiviposte/mappers/UserMapper.java
/Users/abdelhadikawtar/workspace-fullstack/suiviposte/suiviposte-backend/src/main/java/kawtar/abdelhadi/suiviposte/Test.java
/Users/abdelhadikawtar/workspace-fullstack/suiviposte/suiviposte-backend/src/main/java/kawtar/abdelhadi/suiviposte/dto/SuiviDTO.java
/Users/abdelhadikawtar/workspace-fullstack/suiviposte/suiviposte-backend/src/main/java/kawtar/abdelhadi/suiviposte/configuration/WebMvcConfiguration.java
/Users/abdelhadikawtar/workspace-fullstack/suiviposte/suiviposte-backend/src/main/java/kawtar/abdelhadi/suiviposte/batch/SuiviBatchProcessor.java
/Users/abdelhadikawtar/workspace-fullstack/suiviposte/suiviposte-backend/src/main/java/kawtar/abdelhadi/suiviposte/batch/SuiviBatchReader.java
/Users/abdelhadikawtar/workspace-fullstack/suiviposte/suiviposte-backend/src/main/java/kawtar/abdelhadi/suiviposte/dto/ExceptionDTO.java
/Users/abdelhadikawtar/workspace-fullstack/suiviposte/suiviposte-backend/src/main/java/kawtar/abdelhadi/suiviposte/endpoints/UserEndpoint.java
/Users/abdelhadikawtar/workspace-fullstack/suiviposte/suiviposte-backend/src/main/java/kawtar/abdelhadi/suiviposte/exceptions/SuiviPosteExceptionHandler.java
/Users/abdelhadikawtar/workspace-fullstack/suiviposte/suiviposte-backend/src/main/java/kawtar/abdelhadi/suiviposte/beans/TimelineEntryBean.java
/Users/abdelhadikawtar/workspace-fullstack/suiviposte/suiviposte-backend/src/main/java/kawtar/abdelhadi/suiviposte/endpoints/BatchEndpoint.java
/Users/abdelhadikawtar/workspace-fullstack/suiviposte/suiviposte-backend/src/main/java/kawtar/abdelhadi/suiviposte/exceptions/AuthorizationException.java
/Users/abdelhadikawtar/workspace-fullstack/suiviposte/suiviposte-backend/src/main/java/kawtar/abdelhadi/suiviposte/mappers/SuiviMapper.java
/Users/abdelhadikawtar/workspace-fullstack/suiviposte/suiviposte-backend/src/main/java/kawtar/abdelhadi/suiviposte/services/UserService.java
/Users/abdelhadikawtar/workspace-fullstack/suiviposte/suiviposte-backend/src/main/java/kawtar/abdelhadi/suiviposte/beans/ShipmentBean.java
